…
    ## Rows: 5586 Columns: 1912
    ## ── Column specification ────────────────────────────────────────────────────────
    ## Delimiter: ","
    ## chr    (1): DEVICE_TYPE
    ## dbl (1817): CaseID, RSCRAGE, RSCRNINF, RSCRHISP, RSCRRACE, FTFMODE, AGE_R, A...
    ## lgl   (94): TRYADOPT_02, TRYADOPT_03, BIONUMHX_4, MARENDHX_4, ENDMARRX_Y_4, ...
    ## 
    ## ℹ Use `spec()` to retrieve the full column specification for this data.
    ## ℹ Specify the column types or set `show_col_types = FALSE` to quiet this message.

``` r
data
```

    ## # A tibble: 5,586 × 1,912
    ##    CaseID RSCRAGE RSCRNINF RSCRHISP RSCRRACE FTFMODE DEVICE_TYPE AGE_R AGESCRN
    ##     <dbl>   <dbl>    <dbl>    <dbl>    <dbl>   <dbl> <chr>       <dbl>   <dbl>
    ##  1  96064      29        5        5        3       2 Mobile         29      29
    ##  2  96066      18        5        1        4       2 PC             18      18
    ##  3  96068      37        1        5        2       2 Mobile         37      37
    ##  4  96071      40        1        5        3       2 PC             40      40
    ##  5  96072      49        1        5        2       2 PC             49      49
    ##  6  96074      30        1        5        2       2 Mobile         30      30
    ##  7  96075      25        5        5        2       2 Mobile         25      25
    ##  8  96080      37        1        5        3       2 Mobile         37      37
    ##  9  96081      44        5        5        3       2 Mobile         44      44
    ## 10  96082      44        1        5        3       2 Mobile         44      44
    ## # ℹ 5,576 more rows
    ## # ℹ 1,903 more variables: HISP <dbl>, HISPGRP <dbl>, ROSCNT <dbl>,
    ## #   NUMCHILD <dbl>, HHKIDS18 <dbl>, NONBIOKIDS <dbl>, MARSTAT <dbl>,
    ## #   LMARSTAT <dbl>, RMARIT <dbl>, EVRMARRY <dbl>, SSMARCOH <dbl>, MANREL <dbl>,
    ## #   EARNHS_Y <dbl>, MYSCHOL_Y <dbl>, EARNBA_Y <dbl>, WTHPARNW <dbl>,
    ## #   ONOWN <dbl>, ONOWN18 <dbl>, INTACT <dbl>, PARMARR <dbl>, INTACT18 <dbl>,
    ## #   LVSIT14F <dbl>, LVSIT14M <dbl>, WOMRASDU <dbl>, MOMWORKD <dbl>, …
…
